<?xml version="1.0" encoding="UTF-8"?>
<!DOCTYPE svg PUBLIC "-//W3C//DTD SVG 1.1//EN" "http://www.w3.org/Graphics/SVG/1.1/DTD/svg11.dtd">
<!-- Creator: CorelDRAW 2018 (64-Bit) -->
<svg xmlns="http://www.w3.org/2000/svg" xml:space="preserve" width="110.655mm" height="41.5904mm" version="1.1" style="shape-rendering:geometricPrecision; text-rendering:geometricPrecision; image-rendering:optimizeQuality; fill-rule:evenodd; clip-rule:evenodd"
viewBox="0 0 7545 2835.83"
 xmlns:xlink="http://www.w3.org/1999/xlink">
 <defs>
  <style type="text/css">
   <![CDATA[
    .str1 {stroke:#00ABC4;stroke-width:13.64;stroke-miterlimit:22.9256}
    .str0 {stroke:#EF7F1A;stroke-width:5.2;stroke-miterlimit:22.9256}
    .fil2 {fill:none}
    .fil1 {fill:#EF7F1A}
    .fil0 {fill:#00ABC4;fill-rule:nonzero}
   ]]>
  </style>
 </defs>
 <g id="Слой_x0020_1">
  <metadata id="CorelCorpID_0Corel-Layer"/>
  <path class="fil0" d="M2226 2832.08c-87.68,-6.02 -156.14,-33.78 -204.45,-83.29 -35.74,-36.44 -81.79,-115.49 -136.79,-237.15l-395.92 -880.51c49.5,-8.94 164.29,-47.44 344.37,-114.11 173.9,-64.6 283.2,-108.59 327.88,-132.65 266.7,-138.17 400.05,-311.38 400.05,-518.97 0,-238.51 -169.11,-358.11 -507.28,-358.11l-2053.86 0 314.13 -507.28 2027.74 0c729.29,0 1093.59,231.65 1093.59,695.62 0,392.49 -378.04,735.48 -1134.15,1028.99l332.93 731.66 4588.99 0c49.7,0 90.32,41.22 90.32,91.63l0 196.3c0,50.4 -40.62,91.63 -90.32,91.63l-4971.74 0c-8.84,0 -17.4,-1.32 -25.49,-3.75zm-546.75 -2064.97l-648.19 2066.22 -717.62 0 643.37 -2066.22 722.43 0z"/>
  <path class="fil0" d="M4819.6 1986.78c-18.78,74.23 -60.03,130.6 -123.26,169.08 -49.95,30.25 -103.12,45.38 -159.48,45.38l-560.43 0c-131.52,0 -197.05,-42.17 -197.05,-126.02 -70.1,83.85 -164.5,126.02 -284.11,126.02l-236.45 0c-72.87,0 -129.23,-18.78 -169.56,-56.36 -38.01,-34.83 -56.81,-81.12 -56.81,-138.39 0,-32.08 6.42,-65.08 18.8,-99.44l225.9 -618.63 487.58 0 -249.74 698.38 272.66 0 250.2 -698.38 484.36 0 -247.46 698.38 544.86 0zm885.33 -1249.19c0,89.82 -34.82,165.89 -104.02,228.67 -69.65,62.78 -153.05,93.95 -250.65,93.95 -99.45,0 -183.76,-31.17 -253.42,-93.95 -69.2,-62.78 -104.03,-138.85 -104.03,-228.67 0,-88.44 34.83,-164.05 104.03,-226.84 69.66,-62.78 153.97,-93.94 253.42,-93.94 97.6,0 181,31.16 250.65,93.94 69.2,62.78 104.02,138.4 104.02,226.84zm131.98 1249.19c-23.37,78.81 -71.48,136.55 -144.8,174.12 -52.69,27.04 -109.99,40.33 -171.85,40.33l-529.28 0c-127.85,0 -192.01,-53.61 -192.01,-161.3 0,-30.24 6.42,-62.78 18.8,-97.61l203.91 -653.92 481.62 0 -217.67 698.38 551.27 0zm1193.27 0c-42.17,142.96 -153.97,214.45 -335.43,214.45l-684.18 0c-132.42,0 -198.41,-46.75 -198.41,-139.77 0,-23.37 5.05,-48.11 14.65,-75.15l150.76 -483.45 -201.16 0 77.89 -214.46c143.89,-40.32 250.66,-91.65 320.78,-154.43 78.83,-71.03 163.14,-198.87 252.95,-384.47l262.59 0 -166.36 538.91 324.45 0c-51.34,142.98 -155.81,214.46 -313.45,214.46l-82.03 0 -147.55 483.91 724.49 0z"/>
  <path class="fil1 str0" d="M5339.8 400.8c212.76,0 385.22,163.6 385.22,365.4 0,201.81 -172.47,365.4 -385.22,365.4 -212.74,0 -385.2,-163.6 -385.2,-365.4 0,-201.8 172.46,-365.4 385.2,-365.4z"/>
  <path class="fil2 str1" d="M7275.37 222.78c145.15,0 262.81,117.66 262.81,262.81 0,145.15 -117.66,262.81 -262.81,262.81 -145.15,0 -262.81,-117.66 -262.81,-262.81 0,-145.15 117.66,-262.81 262.81,-262.81z"/>
  <path class="fil0" d="M7165.9 628.37l0 -282.54 125.21 0c25.19,0 44.33,2.56 57.42,7.63 13.09,5.07 23.54,14.01 31.37,26.84 7.83,12.82 11.7,27.02 11.7,42.55 0,20.06 -6.5,36.96 -19.46,50.71 -12.96,13.75 -32.95,22.43 -60.05,26.18 9.93,4.73 17.43,9.47 22.56,14.07 10.92,10 21.24,22.56 30.91,37.62l48.87 76.95 -46.7 0 -37.35 -58.8c-10.86,-17.03 -19.86,-29.99 -26.9,-39 -7.1,-9.01 -13.42,-15.25 -19.01,-18.87 -5.52,-3.55 -11.24,-6.05 -17.03,-7.5 -4.21,-0.85 -11.11,-1.32 -20.78,-1.32l-43.28 0 0 125.49 -37.48 0zm37.48 -157.84l80.24 0c17.1,0 30.38,-1.78 39.98,-5.33 9.61,-3.48 16.91,-9.14 21.84,-16.96 5,-7.77 7.49,-16.19 7.49,-25.32 0,-13.35 -4.8,-24.4 -14.47,-33.02 -9.67,-8.62 -24.93,-12.89 -45.77,-12.89l-89.32 0 0 93.52z"/>
 </g>
</svg>
